{
  "selection": [
    {
      "order": 314,
      "name": "attach-file",
      "prevSize": 32
    },
    {
      "order": 313,
      "name": "chat_small",
      "prevSize": 32
    },
    {
      "order": 312,
      "name": "emoticons",
      "prevSize": 32
    },
    {
      "order": 311,
      "name": "send",
      "prevSize": 32
    },
    {
      "order": 310,
      "name": "chat",
      "prevSize": 32
    },
    {
      "order": 315,
      "name": "info",
      "prevSize": 32
    },
    {
      "order": 316,
      "name": "active-chat",
      "prevSize": 32
    },
    {
      "order": 317,
      "name": "close-chat",
      "prevSize": 32
    },
    {
      "order": 318,
      "name": "close-messages",
      "prevSize": 32
    },
    {
      "order": 3,
      "name": "bin"
    },
    {
      "order": 4,
      "name": "loop"
    }
  ],
  "metadata": {
    "name": "Support-chat",
    "importSize": {
      "width": 512,
      "height": 512
    },
    "iconsHash": 2085671739
  },
  "height": 1024,
  "prevSize": 32,
  "icons": [
    {
      "paths": [
        "M603.022 694.044c-5.689 0-11.378 0-17.067 0-39.822 0-73.956-11.378-108.089-34.133-34.133-17.067-62.578-45.511-85.333-73.956-11.378-17.067-11.378-45.511 11.378-56.889 11.378-17.067 39.822-17.067 51.2 5.689 17.067 22.756 34.133 39.822 62.578 51.2 22.756 11.378 51.2 22.756 73.956 22.756 28.444 0 51.2 0 79.644-11.378 22.756-11.378 45.511-22.756 68.267-45.511l136.533-136.533c34.133-34.133 51.2-79.644 51.2-130.844s-17.067-96.711-56.889-130.844c-34.133-34.133-79.644-56.889-130.844-56.889-45.511 0-96.711 17.067-130.844 51.2l-79.644 79.644c-17.067 17.067-39.822 17.067-56.889 0s-17.067-39.822 0-56.889l79.644-79.644c51.2-51.2 119.467-73.956 187.733-73.956 0 0 0 0 0 0 73.956 0 136.533 28.444 187.733 79.644s79.644 119.467 79.644 187.733c0 73.956-28.444 142.222-73.956 193.422l-136.533 136.533c-28.444 28.444-62.578 51.2-96.711 62.578-28.444 11.378-62.578 17.067-96.711 17.067z",
        "M284.444 1012.622c0 0 0 0 0 0-73.956 0-142.222-28.444-193.422-79.644s-79.644-119.467-79.644-187.733c0-73.956 28.444-142.222 73.956-193.422l142.222-142.222c28.444-28.444 62.578-51.2 96.711-62.578s73.956-17.067 113.778-17.067c39.822 0 73.956 11.378 108.089 34.133 34.133 17.067 62.578 45.511 85.333 73.956 11.378 17.067 11.378 45.511-11.378 56.889-11.378 17.067-34.133 17.067-51.2-5.689-17.067-17.067-34.133-34.133-56.889-51.2-22.756-11.378-51.2-17.067-79.644-22.756-28.444 0-51.2 0-79.644 11.378-22.756 11.378-45.511 28.444-62.578 45.511l-136.533 136.533c-34.133 34.133-51.2 79.644-51.2 130.844s17.067 96.711 56.889 130.844c34.133 34.133 79.644 56.889 130.844 56.889 45.511 0 96.711-17.067 130.844-51.2l73.956-79.644c17.067-17.067 45.511-17.067 62.578 0s17.067 45.511 0 62.578l-79.644 79.644c-56.889 45.511-119.467 73.956-193.422 73.956z"
      ],
      "tags": [
        "attach-file"
      ],
      "defaultCode": 59648,
      "grid": 0
    },
    {
      "paths": [
        "M56.889 1012.622c-11.378 0-22.756-5.689-28.444-11.378-11.378-11.378-17.067-28.444-11.378-45.511l91.022-273.067c-28.444-62.578-39.822-130.844-39.822-193.422 0-85.333 22.756-176.356 68.267-250.311s113.778-136.533 193.422-176.356c62.578-34.133 136.533-51.2 210.489-51.2 0 0 0 0 0 0h22.756c119.467 5.689 227.556 56.889 307.2 136.533s130.844 193.422 136.533 307.2v28.444c0 73.956-17.067 147.911-51.2 210.489-39.822 79.644-96.711 142.222-176.356 187.733-73.956 45.511-159.289 73.956-250.311 68.267-68.267 0-130.844-17.067-193.422-39.822l-273.067 91.022c5.689 5.689-0 11.378-5.689 11.378zM534.756 102.4c-56.889 0-119.467 11.378-170.667 39.822-62.578 28.444-119.467 79.644-153.6 142.222-39.822 62.578-56.889 130.844-56.889 204.8 0 62.578 11.378 119.467 39.822 170.667 5.689 11.378 5.689 22.756 0 34.133l-68.267 204.8 204.8-68.267c11.378-5.689 22.756 0 34.133 0 51.2 28.444 113.778 39.822 170.667 39.822 73.956 0 142.222-22.756 204.8-56.889 62.578-39.822 108.089-91.022 142.222-153.6 28.444-51.2 39.822-113.778 39.822-170.667 0 0 0 0 0 0v-28.444c-5.689-91.022-45.511-182.044-113.778-250.311s-159.289-108.089-250.311-113.778l-22.756 5.689c0 0 0 0 0 0z"
      ],
      "tags": [
        "chat_small"
      ],
      "defaultCode": 59649,
      "grid": 0
    },
    {
      "paths": [
        "M512 1012.622c-273.067 0-500.622-221.867-500.622-494.933s221.867-500.622 500.622-500.622c273.067 0 500.622 221.867 500.622 500.622 0 267.378-227.556 494.933-500.622 494.933zM512 102.4c-227.556 0-409.6 182.044-409.6 409.6s187.733 409.6 409.6 409.6c227.556 0 409.6-187.733 409.6-409.6 0-227.556-182.044-409.6-409.6-409.6z",
        "M512 733.867c-130.844 0-210.489-102.4-216.178-108.089-11.378-17.067-11.378-45.511 5.689-56.889s45.511-11.378 56.889 5.689c0 0 56.889 73.956 147.911 73.956s147.911-73.956 147.911-73.956c17.067-17.067 39.822-22.756 56.889-5.689 17.067 11.378 22.756 39.822 5.689 56.889 5.689 5.689-73.956 108.089-204.8 108.089z",
        "M375.467 415.289c-22.756 0-39.822-17.067-39.822-39.822s17.067-45.511 39.822-45.511v0c22.756 0 45.511 17.067 45.511 45.511s-22.756 39.822-45.511 39.822z",
        "M648.533 415.289c-22.756 0-45.511-17.067-45.511-45.511s17.067-45.511 39.822-45.511v0c22.756 0 45.511 17.067 45.511 45.511s-17.067 45.511-39.822 45.511z"
      ],
      "tags": [
        "emoticons"
      ],
      "defaultCode": 59650,
      "grid": 0
    },
    {
      "paths": [
        "M466.489 597.333c-11.378 0-22.756-5.689-28.444-11.378-17.067-17.067-17.067-45.511 0-62.578l500.622-500.622c17.067-17.067 45.511-17.067 62.578 0s17.067 45.511 0 62.578l-500.622 500.622c-11.378 11.378-22.756 11.378-34.133 11.378z",
        "M648.533 1012.622c-17.067 0-34.133-11.378-39.822-22.756l-176.356-392.533-392.533-182.044c-17.067-5.689-28.444-22.756-22.756-39.822 0-17.067 11.378-34.133 28.444-39.822l910.222-318.578c17.067-5.689 34.133 0 45.511 11.378s17.067 28.444 11.378 45.511l-318.578 910.222c-11.378 11.378-28.444 22.756-45.511 28.444 0 0 0 0 0 0zM170.667 381.156l312.889 136.533c11.378 5.689 17.067 11.378 22.756 22.756l136.533 312.889 256-722.489-728.178 250.311z"
      ],
      "tags": [
        "send"
      ],
      "defaultCode": 59651,
      "grid": 0
    },
    {
      "paths": [
        "M1013.729 410.935c-26.999-134.071-104.55-249.585-218.402-325.26-108.776-72.303-239.517-100.158-368.387-78.533-0.853 0.128-1.703 0.256-2.56 0.384-278.122 48.331-465.044 313.914-416.716 591.951 3.84 22.269 9.256 44.493 15.954 65.819 28.195 91.583 21.243 189.74-19.538 276.419-7.124 15.015-4.778 32.843 5.93 45.599s27.684 18.002 43.893 13.694l191.189-52.214c80.963 49.568 172.376 75.206 265.71 75.206 33.911 0 68.082-3.369 102.12-10.237 134.072-27.003 249.586-104.554 325.263-218.406 75.674-113.852 102.506-250.354 75.544-384.423zM867.12 748.093c-63.089 94.915-159.369 159.58-271.043 182.064-111.592 22.351-225.444 0.085-320.356-63.007-7.082-4.69-15.314-7.124-23.632-7.124-3.754 0-7.55 0.512-11.218 1.495l-130.232 35.533c22.012-83.907 20.39-172.762-5.546-257.181-5.674-18.002-10.196-36.427-13.394-54.985-40.141-231.113 114.66-451.823 345.308-492.944 0.768-0.086 1.536-0.214 2.304-0.342 107.964-18.642 217.593 4.522 308.794 65.095 94.911 63.089 159.536 159.367 182.016 271.045 22.48 111.718 0.085 225.485-63.003 320.352z",
        "M682.513 384h-341.256c-23.59 0-42.657 19.067-42.657 42.656s19.068 42.656 42.657 42.656h341.256c23.549 0 42.656-19.067 42.656-42.656s-19.067-42.656-42.656-42.656z",
        "M682.513 554.598h-341.256c-23.59 0-42.657 19.070-42.657 42.66s19.068 42.656 42.657 42.656h341.256c23.549 0 42.656-19.067 42.656-42.656s-19.067-42.66-42.656-42.66z"
      ],
      "tags": [
        "chat"
      ],
      "defaultCode": 59652,
      "grid": 0
    },
    {
      "paths": [
        "M512 19.2c-275.2 0-499.2 217.6-499.2 492.8s224 499.2 499.2 499.2 499.2-224 499.2-499.2-224-492.8-499.2-492.8zM512 915.2c-217.6 0-396.8-179.2-396.8-396.8s179.2-403.2 396.8-403.2 396.8 179.2 396.8 396.8-179.2 403.2-396.8 403.2z",
        "M512 467.2c-25.6 0-51.2 19.2-51.2 44.8v179.2c0 25.6 19.2 51.2 51.2 51.2s51.2-19.2 51.2-51.2v-179.2c0-25.6-25.6-44.8-51.2-44.8z",
        "M512 281.6v0c-25.6 0-51.2 19.2-51.2 51.2s25.6 44.8 51.2 44.8 51.2-19.2 51.2-51.2-25.6-44.8-51.2-44.8z"
      ],
      "tags": [
        "info"
      ],
      "defaultCode": 59653,
      "grid": 0
    },
    {
      "paths": [
        "M805.547 1010.347c-27.307 0-54.613-20.48-54.613-54.613v-95.573c0-40.96-13.653-75.093-40.96-102.4s-61.44-40.96-102.4-40.96h-341.333c-40.96 0-75.093 13.653-102.4 40.96-27.307 20.48-40.96 61.44-40.96 102.4v95.573c0 27.307-20.48 54.613-54.613 54.613s-54.613-27.307-54.613-54.613v-95.573c0-68.267 27.307-129.707 75.093-177.493s109.227-75.093 177.493-75.093h348.16c68.267 0 129.707 27.307 177.493 75.093s75.093 109.227 75.093 177.493v95.573c-6.827 27.307-34.133 54.613-61.44 54.613z",
        "M436.907 512c-136.533 0-245.76-109.227-245.76-245.76s109.227-245.76 245.76-245.76c136.533 0 245.76 109.227 245.76 245.76 6.827 136.533-109.227 245.76-245.76 245.76zM436.907 122.88c-81.92 0-143.36 68.267-143.36 143.36 0 81.92 68.267 143.36 143.36 143.36 81.92 0 143.36-68.267 143.36-143.36 6.827-81.92-61.44-143.36-143.36-143.36z",
        "M955.733 614.4c-13.653 0-27.307-6.827-34.133-13.653l-102.4-102.4c-20.48-20.48-20.48-54.613 0-75.093s54.613-20.48 75.093 0l61.44 68.267 163.84-163.84c20.48-20.48 54.613-20.48 75.093 0s20.48 54.613 0 75.093l-197.973 197.973c-13.653 6.827-27.307 13.653-40.96 13.653z"
      ],
      "width": 1229,
      "tags": [
        "active-chat"
      ],
      "defaultCode": 59654,
      "grid": 0
    },
    {
      "paths": [
        "M810.668 938.646c23.563 0 42.665 19.101 42.665 42.663s-19.104 42.667-42.667 42.667h-597.316c-23.566 0-42.667-19.104-42.667-42.667s19.101-42.663 42.667-42.663h597.318zM486.919 845.124c-0.15-0.116-0.304-0.229-0.454-0.345-0.171-0.126-0.341-0.249-0.512-0.372-0.341-0.249-0.683-0.495-1.014-0.768-1.075-0.884-2.113-1.819-3.099-2.802l-298.684-298.68c-16.66-16.664-16.66-43.677 0-60.337 16.66-16.664 43.677-16.664 60.337 0l225.826 225.823v-664.977c0-23.563 19.101-42.665 42.663-42.665 23.565 0 42.666 19.102 42.666 42.665l0 664.977 225.824-225.823c16.662-16.664 43.677-16.664 60.338 0 16.662 16.66 16.662 43.674 0 60.337l-298.68 298.68c-0.986 0.986-2.024 1.918-3.102 2.802-0.329 0.273-0.671 0.519-1.012 0.768-0.171 0.123-0.342 0.246-0.512 0.372-0.152 0.116-0.302 0.229-0.454 0.345-0.452 0.341-0.904 0.686-1.376 1.004-0.45 0.3-0.912 0.57-1.375 0.84-0.162 0.096-0.325 0.191-0.487 0.29-0.176 0.102-0.351 0.208-0.525 0.317-0.393 0.239-0.786 0.478-1.193 0.696-0.479 0.256-0.967 0.481-1.457 0.707-0.161 0.075-0.322 0.15-0.483 0.225-0.157 0.075-0.313 0.15-0.47 0.225-0.454 0.218-0.907 0.437-1.374 0.631-0.454 0.188-0.915 0.348-1.376 0.512-0.179 0.061-0.359 0.123-0.538 0.188-0.672 0.242-1.338 0.502-2.026 0.71-0.46 0.137-0.927 0.249-1.393 0.362-0.182 0.044-0.364 0.089-0.545 0.133-0.177 0.048-0.353 0.092-0.529 0.14-0.524 0.137-1.047 0.273-1.583 0.379-0.562 0.109-1.128 0.188-1.694 0.263-0.188 0.027-0.377 0.055-0.566 0.079-0.208 0.031-0.414 0.065-0.621 0.099-0.413 0.065-0.826 0.13-1.246 0.174-2.8 0.273-5.623 0.273-8.422 0-0.406-0.041-0.806-0.106-1.205-0.171-0.222-0.034-0.44-0.068-0.662-0.102-0.188-0.024-0.375-0.051-0.563-0.079-0.567-0.075-1.133-0.154-1.696-0.263-0.536-0.106-1.058-0.242-1.58-0.379-0.177-0.048-0.355-0.092-0.532-0.14-0.174-0.041-0.352-0.085-0.529-0.13-0.471-0.113-0.942-0.225-1.406-0.365-0.515-0.157-1.017-0.341-1.522-0.526-0.167-0.061-0.335-0.123-0.505-0.184-0.157-0.055-0.317-0.113-0.474-0.167-0.481-0.167-0.966-0.338-1.44-0.532-0.464-0.195-0.918-0.413-1.372-0.631-0.157-0.075-0.314-0.15-0.471-0.225-0.649-0.304-1.304-0.594-1.939-0.932-0.423-0.225-0.829-0.474-1.236-0.724-0.16-0.096-0.321-0.195-0.481-0.29-0.625-0.372-1.256-0.724-1.864-1.13-0.471-0.317-0.925-0.662-1.376-1.004z"
      ],
      "tags": [
        "Union"
      ],
      "defaultCode": 59655,
      "grid": 0
    },
    {
      "paths": [
        "M547.139 162.816c30.648-30.152 30.648-79.566 0-109.718-29.949-29.464-77.994-29.464-107.942 0l-420.077 413.279c-25.488 25.076-25.488 66.17 0 91.245l420.077 413.283c29.949 29.459 77.994 29.459 107.942 0 30.648-30.157 30.648-79.571 0-109.722l-354.928-349.183 354.928-349.185z"
      ],
      "width": 576,
      "tags": [
        "close-messages"
      ],
      "defaultCode": 59656,
      "grid": 0
    },
    {
      "paths": [
        "M128 320v640c0 35.2 28.8 64 64 64h576c35.2 0 64-28.8 64-64v-640h-704zM320 896h-64v-448h64v448zM448 896h-64v-448h64v448zM576 896h-64v-448h64v448zM704 896h-64v-448h64v448z",
        "M848 128h-208v-80c0-26.4-21.6-48-48-48h-224c-26.4 0-48 21.6-48 48v80h-208c-26.4 0-48 21.6-48 48v80h832v-80c0-26.4-21.6-48-48-48zM576 128h-192v-63.198h192v63.198z"
      ],
      "grid": 0,
      "tags": [
        "bin"
      ]
    },
    {
      "paths": [
        "M889.68 166.32c-93.608-102.216-228.154-166.32-377.68-166.32-282.77 0-512 229.23-512 512h96c0-229.75 186.25-416 416-416 123.020 0 233.542 53.418 309.696 138.306l-149.696 149.694h352v-352l-134.32 134.32z",
        "M928 512c0 229.75-186.25 416-416 416-123.020 0-233.542-53.418-309.694-138.306l149.694-149.694h-352v352l134.32-134.32c93.608 102.216 228.154 166.32 377.68 166.32 282.77 0 512-229.23 512-512h-96z"
      ],
      "grid": 0,
      "tags": [
        "loop"
      ]
    }
  ],
  "colorThemes": [],
  "colorThemeIdx": 0,
  "preferences": {
    "showGlyphs": true,
    "showQuickUse": true,
    "showQuickUse2": true,
    "showSVGs": true,
    "fontPref": {
      "prefix": "icon-",
      "metadata": {
        "fontFamily": "icomoon"
      },
      "metrics": {
        "emSize": 1024,
        "baseline": 6.25,
        "whitespace": 50
      },
      "embed": false
    },
    "imagePref": {
      "prefix": "icon-",
      "png": true,
      "useClassSelector": true,
      "color": 0,
      "bgColor": 16777215,
      "classSelector": ".icon"
    },
    "historySize": 50,
    "showCodes": true,
    "gridSize": 16
  },
  "IcoMoonType": "icon-set"
}